…
中心性标准利用了变量总体中孤立社区的存在。从理论的角度来看，当我们在社区内部有强连接而在社区之间有弱连接时，这种方法发挥了最大的作用。相反，外围性标准可以在包含一些子群的更同质的网络中发挥最大作用。

中心性标准倾向于保留更少但更相关的变量。边缘性标准倾向于保留更多的变量，但相关性较低，然而，它们不一定是每个亚组的最具代表性的。

# R 的二重身套装

使用 R 包[二重身](https://github.com/DavideMassidda/doppelganger)只用一行代码就可以完成前面的步骤。

加载包和数据集:

```
library(doppelganger)
measures # comes with the package

# A tibble: 100 × 7
     alpha     beta   gamma  delta epsilon    zeta     eta
     <dbl>    <dbl>   <dbl>  <dbl>   <dbl>   <dbl>   <dbl>
 1  0.0185 -0.564   -0.526  -0.368  -0.934 -0.878   0.0913
 2  0.120   0.00233 -0.414  -0.515  -0.193 -0.464  -0.324 
 3 -0.767   0.0641  -1.51   -1.26   -1.25  -0.0825 -1.70  
 4 -2.12    0.105   -2.38   -2.37   -1.75  -0.323  -0.426 
 5 -1.48   -0.126   -0.681  -0.340  -1.87   0.0678 -0.791 
 6  1.69    0.268    2.39    2.59    1.06   0.115   1.44  
 7  1.26   -1.17     0.290   0.231   1.93  -0.683  -0.253 
 8  1.23    1.40     1.10    0.997   0.717  1.07    0.265 
 9  0.295  -0.0263  -0.0221 -0.115  -0.125  0.179  -0.978 
10  0.157   0.268    0.215   0.454   0.531  1.25   -0.0989
# … with 90 more rows
```
…
